{
  "version": "2.2",
  "vulnerabilities": [
    {
      "category": "sast",
      "message": "Use of assert detected. The enclosed code will be removed when compiling to optimised byte code.",
      "cve": "tests/test_simple.py:35aea3197077c426f919f32b73fc506bf109ff2e25a063270e53f4cd60b0f5cf:B101",
      "severity": "Low",
      "confidence": "High",
      "scanner": {
        "id": "bandit",
        "name": "Bandit"
      },
      "location": {
        "file": "tests/test_simple.py",
        "start_line": 7,
        "end_line": 7,
        "dependency": {
          "package": {}
        }
      },
      "identifiers": [
        {
          "type": "bandit_test_id",
          "name": "Bandit Test ID B101",
          "value": "B101",
          "url": "https://docs.openstack.org/bandit/latest/plugins/b101_assert_used.html"
        }
      ]
    }
  ],
  "remediations": []
}
